{
  "tableName": "dict_customers",
  "dbSchema": "dbo",
  "dictGroupId": 4,
  "displayName": "Companies",
  "fields": [
    {
      "name": "id",
      "displayName": "ID",
      "isEditable": false,
      "type": "number",
      "defaultColumnWidth": 100
    },
    {
      "name": "customer_name",
      "displayName": "Customer name",
      "isEditable": true,
      "type": "text",
      "required": true,
      "defaultColumnWidth": 200
    },
    {
      "name": "short_customer_name",
      "displayName": "Short customer name",
      "isEditable": true,
      "type": "text",
      "required": true,
      "defaultColumnWidth": 200
    },
    {
      "name": "adress",
      "displayName": "Address",
      "isEditable": true,
      "type": "text",
      "required": true,
      "defaultColumnWidth": 200
    },
    {
      "name": "phone",
      "displayName": "Phone",
      "isEditable": true,
      "type": "text",
      "required": true,
      "defaultColumnWidth": 200
    },
    {
      "name": "email",
      "displayName": "Email",
      "isEditable": true,
      "type": "text",
      "required": true,
      "defaultColumnWidth": 200
    },
    {
      "name": "site",
      "displayName": "Site",
      "isEditable": true,
      "type": "text",
      "required": true,
      "defaultColumnWidth": 200
    },
    {
      "name": "okved_old_id",
      "displayName": "Okved old id",
      "isEditable": true,
      "type": "number",
      "required": true,
      "defaultColumnWidth": 200
    },
    {
      "name": "index_of_financial_risks",
      "displayName": "Index of financial risks",
      "isEditable": true,
      "type": "number",
      "required": true,
      "defaultColumnWidth": 200
    },
    {
      "name": "company_size",
      "displayName": "Company size",
      "isEditable": true,
      "type": "text",
      "required": true,
      "defaultColumnWidth": 200
    },
    {
      "name": "number_of_employees",
      "displayName": "Number of employees",
      "isEditable": true,
      "type": "text",
      "required": true,
      "defaultColumnWidth": 200
    },
    {
      "name": "revenue",
      "displayName": "Revenue",
      "isEditable": true,
      "type": "number",
      "required": true,
      "defaultColumnWidth": 200
    },
    {
      "name": "gross_profitability",
      "displayName": "Gross profitability",
      "isEditable": true,
      "type": "number",
      "required": true,
      "defaultColumnWidth": 200
    },
    {
      "name": "net_profit",
      "displayName": "Net profit",
      "isEditable": true,
      "type": "text",
      "required": true,
      "defaultColumnWidth": 200
    },
    {
      "name": "ros",
      "displayName": "Ros",
      "isEditable": true,
      "type": "number",
      "required": true,
      "defaultColumnWidth": 200
    },
    {
      "name": "group_company_id",
      "displayName": "Group company",
      "isEditable": true,
      "type": "number",
      "required": true,
      "defaultColumnWidth": 200,
      "isDictionaryValue": true,
      "dictionaryDBSchema": "dbo",
      "dictionaryName": "dict_company_groups"
    },
    {
      "name": "okved_new_id",
      "displayName": "Okved new id",
      "isEditable": true,
      "type": "number",
      "required": true,
      "defaultColumnWidth": 200
    },
    {
      "name": "unique_tin",
      "displayName": "Unique tin",
      "isEditable": true,
      "type": "text",
      "required": true,
      "defaultColumnWidth": 200
    },
    {
      "name": "previous_tins",
      "displayName": "Previous tins",
      "isEditable": true,
      "type": "text",
      "required": true,
      "defaultColumnWidth": 200
    },
    {
      "name": "original_tin",
      "displayName": "Original tin",
      "isEditable": true,
      "type": "text",
      "required": true,
      "defaultColumnWidth": 200
    },
    {
      "name": "feature_tin",
      "displayName": "Feature tin",
      "isEditable": true,
      "type": "text",
      "required": true,
      "defaultColumnWidth": 200
    },
    {
      "name": "date_of_adding",
      "displayName": "Date of adding",
      "isEditable": true,
      "type": "text",
      "required": true,
      "defaultColumnWidth": 200
    },
    {
      "name": "lists",
      "displayName": "Lists",
      "isEditable": true,
      "type": "text",
      "required": true,
      "defaultColumnWidth": 200
    },
    {
      "name": "correct_tin",
      "displayName": "Correct tin",
      "isEditable": true,
      "type": "text",
      "required": true,
      "defaultColumnWidth": 200
    },
    {
      "name": "contact_person",
      "displayName": "Contact person",
      "isEditable": true,
      "type": "text",
      "required": true,
      "defaultColumnWidth": 200
    },
    {
      "name": "registration_number",
      "displayName": "Registration number",
      "isEditable": true,
      "type": "text",
      "required": true,
      "defaultColumnWidth": 200
    }
  ],
  "filterRules": [{
    "field": "customer_name",
    "operator": "is not",
    "value": null
  }],
  "idField": "id",
  "isNewRowAllowed": true
}