{
  "tableName": "dict_models",
  "dbSchema": "dbo",
  "dictGroupId": 3,
  "displayName": "Models",
  "fields": [
    {
      "name": "id",
      "displayName": "ID",
      "isEditable": false,
      "type": "number",
      "defaultColumnWidth": 100
    },
    {
      "name": "model",
      "displayName": "Модель",
      "isEditable": true,
      "type": "text",
      "required": true,
      "defaultColumnWidth": 100
    },
    {
      "name": "brand_id",
      "displayName": "Брэнд",
      "isEditable": true,
      "type": "number",
      "required": true,
      "defaultColumnWidth": 200,
      "isDictionaryValue": true,
      "dictionaryName": "dict_brands",
      "dictionaryDBSchema": "dbo"
    },
    {
      "name": "modification",
      "displayName": "Модификация",
      "isEditable": true,
      "type": "text",
      "required": true,
      "defaultColumnWidth": 100
    },
    {
      "name": "model_and_modification",
      "displayName": "Полное наименование модели",
      "isEditable": true,
      "type": "text",
      "required": true,
      "defaultColumnWidth": 100
    }
  ],
  "idField": "id",
  "isNewRowAllowed": true
}