{
  "tableName": "dict_versions",
  "dbSchema": "dbo",
  "dictGroupId": 1,
  "displayName": "Versions",
  "fields": [
    {
      "name": "id",
      "displayName": "ID",
      "isEditable": false,
      "type": "number",
      "defaultColumnWidth": 100
    },
    {
      "name": "name",
      "displayName": "Name",
      "isEditable": true,
      "type": "text",
      "defaultColumnWidth": 200
    }
  ],
  "idField": "id",
  "isNewRowAllowed": true
}